%YAML 1.1
%TAG !u! tag:unity3d.com,2011:
--- !u!1045 &1
EditorBuildSettings:
  m_ObjectHideFlags: 0
  serializedVersion: 2
  m_Scenes: []
  m_configObjects:
    UnityEditor.XR.ARKit.ARKitSettings: {fileID: 11400000, guid: e49728d50c14e481590447041b6cce9b, type: 2}
    com.unity.xr.magicleap.magic_leap_settings: {fileID: 11400000, guid: d56c6aa8ea5834cda9a4a6ac057f4692, type: 2}
    com.unity.xr.management.loader_settings: {fileID: 11400000, guid: b625d475fdd074fe783ec0d8dd5013ee, type: 2}
