%YAML 1.1
%TAG !u! tag:unity3d.com,2011:
--- !u!114 &11400000
MonoBehaviour:
  m_ObjectHideFlags: 0
  m_CorrespondingSourceObject: {fileID: 0}
  m_PrefabInstance: {fileID: 0}
  m_PrefabAsset: {fileID: 0}
  m_GameObject: {fileID: 0}
  m_Enabled: 1
  m_EditorHideFlags: 0
  m_Script: {fileID: 11500000, guid: 848409ee8ba454f42a5ddff137688a27, type: 3}
  m_Name: ReferenceImageLibrary
  m_EditorClassIdentifier: 
  m_GuidLow: 4829244484854842888
  m_GuidHigh: 4275848290813327037
  m_Images:
  - m_SerializedGuid:
      m_GuidLow: 5080723060904286501
      m_GuidHigh: 16216522286517201335
    m_SerializedTextureGuid:
      m_GuidLow: 16490764928787702665
      m_GuidHigh: 8321018754359149115
    m_Size: {x: 0.054, y: 0.023677511}
    m_SpecifySize: 1
    m_Name: nejny
    m_Texture: {fileID: 2800000, guid: b6dc6389f754e4da3bc2f06e78327a73, type: 3}
  - m_SerializedGuid:
      m_GuidLow: 5170214145825489664
      m_GuidHigh: 17343270308181731227
    m_SerializedTextureGuid:
      m_GuidLow: 10687204549491501509
      m_GuidHigh: 5866061505849934824
    m_Size: {x: 0.056, y: 0.070424244}
    m_SpecifySize: 1
    m_Name: cow
    m_Texture: {fileID: 2800000, guid: 1e6129c593ea9450e843c71edc6f6851, type: 3}
  - m_SerializedGuid:
      m_GuidLow: 5608351339669409538
      m_GuidHigh: 13586911549260800643
    m_SerializedTextureGuid:
      m_GuidLow: 15287957886681673996
      m_GuidHigh: 7554632077948162859
    m_Size: {x: 0.052, y: 0.11262268}
    m_SpecifySize: 1
    m_Name: ryaj
    m_Texture: {fileID: 2800000, guid: e8caf10cbcb2d4292b13df46d971d768, type: 3}
